<?xml version="1.0" encoding="UTF-8"?>
<svg xmlns="http://www.w3.org/2000/svg" xmlns:xlink="http://www.w3.org/1999/xlink" width="100pt" height="100pt" viewBox="0 0 100 100" version="1.1">
<g id="surface817915">
<path style=" stroke:none;fill-rule:nonzero;fill:rgb(7.058824%,19.215686%,45.882353%);fill-opacity:1;" d="M 40 6 C 36.710938 6 34 8.710938 34 12 L 34 18 L 6 18 C 2.695312 18 0 20.695312 0 24 L 0 50 C 0 53.304688 2.695312 56 6 56 L 94 56 C 97.304688 56 100 53.304688 100 50 L 100 24 C 100 20.695312 97.304688 18 94 18 L 66 18 L 66 12 C 66 8.710938 63.289062 6 60 6 Z M 40 10 L 60 10 C 61.125 10 62 10.875 62 12 L 62 18 L 38 18 L 38 12 C 38 10.875 38.875 10 40 10 Z M 50 44 C 52.210938 44 54 45.789062 54 48 C 54 50.210938 52.210938 52 50 52 C 47.789062 52 46 50.210938 46 48 C 46 45.789062 47.789062 44 50 44 Z M 0 54 L 0 88 C 0 91.304688 2.695312 94 6 94 L 94 94 C 97.304688 94 100 91.304688 100 88 L 100 54 C 100 57.304688 97.304688 60 94 60 L 6 60 C 2.695312 60 0 57.304688 0 54 Z M 0 54 "/>
</g>
</svg>
